Heavy_Drinking_1
…
acc_a <- acc %>% mutate(time_30m = as.integer(round(time/1000/60/30)))
acc_a

## # A tibble: 14,057,567 x 6
##             time pid          x       y       z time_30m
##            <dbl> <chr>    <dbl>   <dbl>   <dbl>    <int>
##  1             0 JB3156  0       0       0             0
##  2             0 CC6740  0       0       0             0
##  3 1493733882409 SA0297  0.0758  0.0273 -0.0102   829852
##  4 1493733882455 SA0297 -0.0359  0.0794  0.0037   829852
##  5 1493733882500 SA0297 -0.243  -0.0861 -0.0163   829852
##  6 1493733883945 SA0297 -0.289   0.0514 -0.0145   829852
##  7 1493733883953 SA0297 -0.0413 -0.0184 -0.0105   829852
##  8 1493733883957 SA0297 -0.0413 -0.0001  0.0017   829852
##  9 1493733883963 SA0297 -0.0286 -0.0028 -0.0094   829852
## 10 1493733883974 SA0297 -0.0543 -0.041  -0.0109   829852
## # ... with 14,057,557 more rows
…
## Rows: 54 Columns: 2

## -- Column specification --------------------------------------------------------
## Delimiter: ","
## dbl (2): timestamp, TAC_Reading

## 
## i Use `spec()` to retrieve the full column specification for this data.
## i Specify the column types or set `show_col_types = FALSE` to quiet this message.

tac_all <- bind_rows(data_list,.id = "id")
tac_all

## # A tibble: 715 x 3
##    id                              timestamp TAC_Reading
##    <chr>                               <dbl>       <dbl>
##  1 clean_tac/BK7610_clean_TAC.csv 1493718714   -0.000482
##  2 clean_tac/BK7610_clean_TAC.csv 1493720697    0.00157 
##  3 clean_tac/BK7610_clean_TAC.csv 1493721027    0.00214 
##  4 clean_tac/BK7610_clean_TAC.csv 1493721357    0.000877
##  5 clean_tac/BK7610_clean_TAC.csv 1493721686   -0.00115 
##  6 clean_tac/BK7610_clean_TAC.csv 1493722016   -0.00216 
##  7 clean_tac/BK7610_clean_TAC.csv 1493722345   -0.00103 
##  8 clean_tac/BK7610_clean_TAC.csv 1493722674    0.00181 
##  9 clean_tac/BK7610_clean_TAC.csv 1493723003    0.00454 
## 10 clean_tac/BK7610_clean_TAC.csv 1493724832    0.00518 
## # ... with 705 more rows

tac_all %>% mutate(realtime=as.POSIXct(timestamp, origin="1970-01-01"))

## # A tibble: 715 x 4
##    id                              timestamp TAC_Reading realtime           
##    <chr>                               <dbl>       <dbl> <dttm>             
##  1 clean_tac/BK7610_clean_TAC.csv 1493718714   -0.000482 2017-05-02 10:51:54
##  2 clean_tac/BK7610_clean_TAC.csv 1493720697    0.00157  2017-05-02 11:24:57
##  3 clean_tac/BK7610_clean_TAC.csv 1493721027    0.00214  2017-05-02 11:30:27
##  4 clean_tac/BK7610_clean_TAC.csv 1493721357    0.000877 2017-05-02 11:35:57
##  5 clean_tac/BK7610_clean_TAC.csv 1493721686   -0.00115  2017-05-02 11:41:26
##  6 clean_tac/BK7610_clean_TAC.csv 1493722016   -0.00216  2017-05-02 11:46:56
##  7 clean_tac/BK7610_clean_TAC.csv 1493722345   -0.00103  2017-05-02 11:52:25
##  8 clean_tac/BK7610_clean_TAC.csv 1493722674    0.00181  2017-05-02 11:57:54
##  9 clean_tac/BK7610_clean_TAC.csv 1493723003    0.00454  2017-05-02 12:03:23
## 10 clean_tac/BK7610_clean_TAC.csv 1493724832    0.00518  2017-05-02 12:33:52
## # ... with 705 more rows
…
tac_all_a <- tac_all %>% 
  mutate(pid=str_remove(id, "clean_tac/")) %>% 
  mutate(pid=str_remove(pid, "_clean_TAC.csv")) %>% 
  mutate(time_30m=as.integer(timestamp/60/30)) %>% 
  select(pid, timestamp, time_30m, TAC_Reading) %>%
  arrange(pid, timestamp)
tac_all_a              

## # A tibble: 715 x 4
##    pid     timestamp time_30m TAC_Reading
##    <chr>       <dbl>    <int>       <dbl>
##  1 BK7610 1493718714   829843   -0.000482
##  2 BK7610 1493720697   829844    0.00157 
##  3 BK7610 1493721027   829845    0.00214 
##  4 BK7610 1493721357   829845    0.000877
##  5 BK7610 1493721686   829845   -0.00115 
##  6 BK7610 1493722016   829845   -0.00216 
##  7 BK7610 1493722345   829845   -0.00103 
##  8 BK7610 1493722674   829845    0.00181 
##  9 BK7610 1493723003   829846    0.00454 
## 10 BK7610 1493724832   829847    0.00518 
## # ... with 705 more rows

combine

data <- inner_join(tac_all_a, acc_a) %>%
  mutate(intox=(TAC_Reading > 0.08) * 1L)

## Joining, by = c("pid", "time_30m")

data

## # A tibble: 11,155,752 x 9
##    pid     timestamp time_30m TAC_Reading       time     x       y       z intox
##    <chr>       <dbl>    <int>       <dbl>      <dbl> <dbl>   <dbl>   <dbl> <int>
##  1 BK7610 1493737046   829853      0.0654    1.49e12 0.126 -0.0078 -0.0243     0
##  2 BK7610 1493737046   829853      0.0654    1.49e12 0.134 -0.0697 -0.0446     0
##  3 BK7610 1493737046   829853      0.0654    1.49e12 0.144 -0.0474 -0.0447     0
##  4 BK7610 1493737046   829853      0.0654    1.49e12 0.126 -0.0038  0.0111     0
##  5 BK7610 1493737046   829853      0.0654    1.49e12 0.108  0.0032  0.0276     0
##  6 BK7610 1493737046   829853      0.0654    1.49e12 0.116 -0.0284  0          0
##  7 BK7610 1493737046   829853      0.0654    1.49e12 0.108 -0.0282 -0.0035     0
##  8 BK7610 1493737046   829853      0.0654    1.49e12 0.102 -0.0145 -0.0042     0
##  9 BK7610 1493737046   829853      0.0654    1.49e12 0.113  0.008  -0.0172     0
## 10 BK7610 1493737046   829853      0.0654    1.49e12 0.114  0.0097 -0.0038     0
## # ... with 11,155,742 more rows
…
