…
```r
parkinsons <- janitor::clean_names(parkinsons)
parkinsons
```

```
## # A tibble: 5,875 x 22
##    subject_number   age   sex test_time motor_updrs total_updrs jitter_percent
##             <dbl> <dbl> <dbl>     <dbl>       <dbl>       <dbl>          <dbl>
##  1              1    72     0      5.64        28.2        34.4        0.00662
##  2              1    72     0     12.7         28.4        34.9        0.003  
##  3              1    72     0     19.7         28.7        35.4        0.00481
##  4              1    72     0     25.6         28.9        35.8        0.00528
##  5              1    72     0     33.6         29.2        36.4        0.00335
##  6              1    72     0     40.7         29.4        36.9        0.00353
##  7              1    72     0     47.6         29.7        37.4        0.00422
##  8              1    72     0     54.6         29.9        37.9        0.00476
##  9              1    72     0     61.7         30.2        38.4        0.00432
## 10              1    72     0     68.7         30.4        38.8        0.00496
## # ... with 5,865 more rows, and 15 more variables: jitter_abs <dbl>,
## #   jitter_rap <dbl>, jitter_ppq5 <dbl>, jitter_ddp <dbl>, shimmer <dbl>,
## #   shimmer_d_b <dbl>, shimmer_apq3 <dbl>, shimmer_apq5 <dbl>,
## #   shimmer_apq11 <dbl>, shimmer_dda <dbl>, nhr <dbl>, hnr <dbl>, rpde <dbl>,
## #   dfa <dbl>, ppe <dbl>
```
…
#### prepare data


```r
parkinsons_test_data <- parkinsons_test %>% 
  select(-c("subject_number","age","sex","test_time","motor_updrs","total_updrs"))
parkinsons_test_data
```

```
## # A tibble: 1,498 x 16
##    jitter_percent jitter_abs jitter_rap jitter_ppq5 jitter_ddp shimmer
##             <dbl>      <dbl>      <dbl>       <dbl>      <dbl>   <dbl>
##  1        0.00662  0.0000338    0.00401     0.00317    0.0120   0.0256
##  2        0.003    0.0000168    0.00132     0.0015     0.00395  0.0202
##  3        0.00481  0.0000246    0.00205     0.00208    0.00616  0.0168
##  4        0.00528  0.0000266    0.00191     0.00264    0.00573  0.0231
##  5        0.00335  0.0000201    0.00093     0.0013     0.00278  0.0170
##  6        0.00353  0.0000229    0.00119     0.00159    0.00357  0.0223
##  7        0.00422  0.0000240    0.00212     0.00221    0.00637  0.0435
##  8        0.00476  0.0000247    0.00226     0.00259    0.00678  0.0219
##  9        0.00432  0.0000285    0.00156     0.00207    0.00468  0.0430
## 10        0.00496  0.0000270    0.00258     0.00253    0.00773  0.0361
## # ... with 1,488 more rows, and 10 more variables: shimmer_d_b <dbl>,
## #   shimmer_apq3 <dbl>, shimmer_apq5 <dbl>, shimmer_apq11 <dbl>,
## #   shimmer_dda <dbl>, nhr <dbl>, hnr <dbl>, rpde <dbl>, dfa <dbl>, ppe <dbl>
```
…
```
## [1] 1498   16
```

```r
parkinsons_train_data <- parkinsons_train %>% 
  select(-c("subject_number","age","sex","test_time","motor_updrs","total_updrs"))
parkinsons_train_data
```

```
## # A tibble: 4,377 x 16
##    jitter_percent jitter_abs jitter_rap jitter_ppq5 jitter_ddp shimmer
##             <dbl>      <dbl>      <dbl>       <dbl>      <dbl>   <dbl>
##  1        0.00432  0.0000298    0.00184     0.00216    0.00551  0.0261
##  2        0.00355  0.0000269    0.00137     0.00187    0.00412  0.0192
##  3        0.00387  0.0000307    0.0018      0.00233    0.0054   0.0264
##  4        0.00372  0.0000275    0.00178     0.00205    0.00534  0.0291
##  5        0.00254  0.0000192    0.00120     0.00151    0.0036   0.0160
##  6        0.00372  0.0000290    0.00167     0.00209    0.00501  0.0247
##  7        0.00339  0.0000275    0.00149     0.00195    0.00447  0.0283
##  8        0.00365  0.0000283    0.00178     0.00218    0.00535  0.0241
##  9        0.0052   0.0000400    0.00204     0.00237    0.00612  0.0242
## 10        0.00505  0.0000371    0.00213     0.00231    0.00639  0.0245
## # ... with 4,367 more rows, and 10 more variables: shimmer_d_b <dbl>,
## #   shimmer_apq3 <dbl>, shimmer_apq5 <dbl>, shimmer_apq11 <dbl>,
## #   shimmer_dda <dbl>, nhr <dbl>, hnr <dbl>, rpde <dbl>, dfa <dbl>, ppe <dbl>
```
…
